Create Grid Data for single subject from raw accelerometry — create_subject_predictor • walking.fingerprint
…
lags
the lag (in samples, not seconds) to compute bin inclusion.

    Value

A data.frame of subject level lags and cut-values

    Examples

df = example_walking %>%
   dplyr::mutate(time = lubridate::floor_date(Sys.time(), "seconds") + time)
create_subject_predictor(df)
#> # A tibble: 207 × 433
#>    second              `lag_1_[0,0.25]_[0,0.25]` `lag_1_[0,0.25]_(0.25,0.5]`
#>    <dttm>                                  <int>                       <int>
#>  1 2023-10-13 14:22:11                         0                           0
#>  2 2023-10-13 14:22:12                         0                           0
#>  3 2023-10-13 14:22:13                         0                           0
#>  4 2023-10-13 14:22:14                         0                           0
#>  5 2023-10-13 14:22:15                         0                           0
#>  6 2023-10-13 14:22:16                         0                           0
#>  7 2023-10-13 14:22:17                         0                           0
#>  8 2023-10-13 14:22:18                         0                           0
#>  9 2023-10-13 14:22:19                         0                           0
#> 10 2023-10-13 14:22:20                         0                           0
#> # ℹ 197 more rows
#> # ℹ 430 more variables: `lag_1_[0,0.25]_(0.5,0.75]` <int>,
#> #   `lag_1_[0,0.25]_(0.75,1]` <int>, `lag_1_[0,0.25]_(1,1.25]` <int>,
#> #   `lag_1_[0,0.25]_(1.25,1.5]` <int>, `lag_1_[0,0.25]_(1.5,1.75]` <int>,
#> #   `lag_1_[0,0.25]_(1.75,2]` <int>, `lag_1_[0,0.25]_(2,2.25]` <int>,
#> #   `lag_1_[0,0.25]_(2.25,2.5]` <int>, `lag_1_[0,0.25]_(2.5,2.75]` <int>,
#> #   `lag_1_[0,0.25]_(2.75,3]` <int>, `lag_1_(0.25,0.5]_[0,0.25]` <int>, …
create_subject_predictor(df, lags = c(1, 15))
#> # A tibble: 207 × 289
#>    second              `lag_1_[0,0.25]_[0,0.25]` `lag_1_[0,0.25]_(0.25,0.5]`
#>    <dttm>                                  <int>                       <int>
#>  1 2023-10-13 14:22:11                         0                           0
#>  2 2023-10-13 14:22:12                         0                           0
#>  3 2023-10-13 14:22:13                         0                           0
#>  4 2023-10-13 14:22:14                         0                           0
#>  5 2023-10-13 14:22:15                         0                           0
#>  6 2023-10-13 14:22:16                         0                           0
#>  7 2023-10-13 14:22:17                         0                           0
#>  8 2023-10-13 14:22:18                         0                           0
#>  9 2023-10-13 14:22:19                         0                           0
#> 10 2023-10-13 14:22:20                         0                           0
#> # ℹ 197 more rows
#> # ℹ 286 more variables: `lag_1_[0,0.25]_(0.5,0.75]` <int>,
#> #   `lag_1_[0,0.25]_(0.75,1]` <int>, `lag_1_[0,0.25]_(1,1.25]` <int>,
#> #   `lag_1_[0,0.25]_(1.25,1.5]` <int>, `lag_1_[0,0.25]_(1.5,1.75]` <int>,
#> #   `lag_1_[0,0.25]_(1.75,2]` <int>, `lag_1_[0,0.25]_(2,2.25]` <int>,
#> #   `lag_1_[0,0.25]_(2.25,2.5]` <int>, `lag_1_[0,0.25]_(2.5,2.75]` <int>,
#> #   `lag_1_[0,0.25]_(2.75,3]` <int>, `lag_1_(0.25,0.5]_[0,0.25]` <int>, …
…
